{
  "$schema": "https://biomejs.dev/schemas/1.4.1/schema.json",
  "organizeImports": {
    "enabled": true
  },
  "formatter": {
    "indentStyle": "space",
    "indentWidth": 2
  },
  "linter": {
    "enabled": true,
    "rules": {
      "recommended": true
    }
  },
  "files": {
    "ignore": [
      "**/*.js",
      "node_modules",
      "dist",
      "coverage",
      "docs",
      "CHANGELOG.md",
      "README.md",
      "LICENSE"
    ]
  }
}
